[{"id":1,"fecha":"7/18/2018","importe":93,"latitud":36.7338782,"longitud":69.5394189},
{"id":2,"fecha":"1/31/2019","importe":7,"latitud":-11.268661,"longitud":-37.43854},
{"id":3,"fecha":"4/10/2019","importe":89,"latitud":44.7074706,"longitud":18.4918915},
{"id":4,"fecha":"11/11/2018","importe":82,"latitud":33.881885,"longitud":105.538243},
{"id":5,"fecha":"4/6/2019","importe":24,"latitud":-23.8879561,"longitud":35.3959879},
{"id":6,"fecha":"2/21/2019","importe":3,"latitud":36.6817149,"longitud":65.7490624},
{"id":7,"fecha":"1/11/2019","importe":61,"latitud":-6.9569954,"longitud":112.5408991},
{"id":8,"fecha":"2/19/2019","importe":77,"latitud":23.549701,"longitud":116.372708},
{"id":9,"fecha":"4/3/2019","importe":59,"latitud":19.8838774,"longitud":110.4153075},
{"id":10,"fecha":"12/29/2018","importe":92,"latitud":29.099294,"longitud":119.692696},
{"id":11,"fecha":"5/13/2019","importe":82,"latitud":49.333258,"longitud":6.15176},
{"id":12,"fecha":"10/10/2018","importe":75,"latitud":26.8844636,"longitud":-81.734942},
{"id":13,"fecha":"8/21/2018","importe":96,"latitud":"50.85253","longitud":"24.32364"},
{"id":14,"fecha":"2/8/2019","importe":28,"latitud":14.880403,"longitud":120.7063932},
{"id":15,"fecha":"10/28/2018","importe":28,"latitud":3.2987908,"longitud":101.7409946},
{"id":16,"fecha":"10/6/2018","importe":77,"latitud":"47.02895","longitud":"-65.50186"},
{"id":17,"fecha":"6/12/2019","importe":67,"latitud":50.1323846,"longitud":19.5866652},
{"id":18,"fecha":"11/6/2018","importe":97,"latitud":4.8949753,"longitud":38.1001629},
{"id":19,"fecha":"4/30/2019","importe":40,"latitud":17.0521348,"longitud":121.7050399},
{"id":20,"fecha":"6/20/2019","importe":100,"latitud":-20.5360441,"longitud":29.2814687},
{"id":21,"fecha":"7/9/2019","importe":97,"latitud":59.9149479,"longitud":10.7362308},
{"id":22,"fecha":"7/30/2018","importe":71,"latitud":48.8567544,"longitud":2.3510471},
{"id":23,"fecha":"11/9/2018","importe":31,"latitud":32.501495,"longitud":119.196466},
{"id":24,"fecha":"3/11/2019","importe":33,"latitud":"-8.4734","longitud":"119.9896"},
{"id":25,"fecha":"2/25/2019","importe":17,"latitud":-26.2171929,"longitud":28.327702},
{"id":26,"fecha":"8/8/2018","importe":41,"latitud":24.865287,"longitud":118.578967},
{"id":27,"fecha":"5/8/2019","importe":93,"latitud":"-7.1332","longitud":"113.53472"},
{"id":28,"fecha":"3/21/2019","importe":86,"latitud":32.848472,"longitud":96.583409},
{"id":29,"fecha":"2/24/2019","importe":96,"latitud":7.591829,"longitud":124.0735387},
{"id":30,"fecha":"12/1/2018","importe":21,"latitud":43.082258,"longitud":23.3786254},
{"id":31,"fecha":"11/4/2018","importe":77,"latitud":-6.2335134,"longitud":107.1071},
{"id":32,"fecha":"12/20/2018","importe":26,"latitud":41.2529921,"longitud":-7.9536382},
{"id":33,"fecha":"10/25/2018","importe":6,"latitud":"-6.6825","longitud":"105.8573"},
{"id":34,"fecha":"7/20/2018","importe":17,"latitud":-6.6970726,"longitud":107.5357224},
{"id":35,"fecha":"1/14/2019","importe":70,"latitud":14.6546241,"longitud":-87.0399404},
{"id":36,"fecha":"11/16/2018","importe":50,"latitud":39.7406374,"longitud":-8.7186315},
{"id":37,"fecha":"10/5/2018","importe":83,"latitud":9.165288,"longitud":-79.5434841},
{"id":38,"fecha":"4/29/2019","importe":57,"latitud":32.341673,"longitud":36.2020028},
{"id":39,"fecha":"8/16/2018","importe":98,"latitud":37.1994932,"longitud":126.8311887},
{"id":40,"fecha":"5/1/2019","importe":97,"latitud":0.845865,"longitud":108.8796091},
{"id":41,"fecha":"8/31/2018","importe":3,"latitud":-8.1265731,"longitud":111.813634},
{"id":42,"fecha":"9/16/2018","importe":86,"latitud":49.3883764,"longitud":21.0533447},
{"id":43,"fecha":"3/19/2019","importe":87,"latitud":41.7815196,"longitud":123.4582948},
{"id":44,"fecha":"6/24/2019","importe":33,"latitud":22.75839,"longitud":108.487368},
{"id":45,"fecha":"5/8/2019","importe":68,"latitud":63.1700739,"longitud":14.6509433},
{"id":46,"fecha":"10/20/2018","importe":68,"latitud":-6.9909214,"longitud":113.8659097},
{"id":47,"fecha":"9/18/2018","importe":62,"latitud":-8.5324245,"longitud":120.7982029},
{"id":48,"fecha":"6/2/2019","importe":71,"latitud":36.2291285,"longitud":49.9213133},
{"id":49,"fecha":"7/26/2018","importe":68,"latitud":49.7514502,"longitud":6.4641645},
{"id":50,"fecha":"3/27/2019","importe":92,"latitud":-18.3349525,"longitud":-59.7602664},
{"id":51,"fecha":"9/7/2018","importe":37,"latitud":"34.99015","longitud":"70.91302"},
{"id":52,"fecha":"11/1/2018","importe":21,"latitud":54.6380366,"longitud":25.2865584},
{"id":53,"fecha":"8/25/2018","importe":25,"latitud":-15.7311162,"longitud":-41.5212742},
{"id":54,"fecha":"1/2/2019","importe":80,"latitud":45.8903748,"longitud":-77.2672051},
{"id":55,"fecha":"6/22/2019","importe":60,"latitud":-24.9852879,"longitud":-55.1513801},
{"id":56,"fecha":"12/26/2018","importe":10,"latitud":41.2378592,"longitud":-8.5349198},
{"id":57,"fecha":"9/9/2018","importe":85,"latitud":"40.49155","longitud":"69.70245"},
{"id":58,"fecha":"9/17/2018","importe":80,"latitud":38.1788095,"longitud":15.4976181},
{"id":59,"fecha":"11/16/2018","importe":46,"latitud":7.8401615,"longitud":99.9423246},
{"id":60,"fecha":"12/13/2018","importe":98,"latitud":-0.1882802,"longitud":10.7605239},
{"id":61,"fecha":"7/2/2019","importe":48,"latitud":8.4538411,"longitud":39.2803991},
{"id":62,"fecha":"7/3/2019","importe":95,"latitud":18.1811952,"longitud":104.5451903},
{"id":63,"fecha":"4/7/2019","importe":32,"latitud":48.892701,"longitud":2.233089},
{"id":64,"fecha":"10/13/2018","importe":62,"latitud":46.8515406,"longitud":40.3138699},
{"id":65,"fecha":"6/1/2019","importe":97,"latitud":26.097158,"longitud":115.308246},
{"id":66,"fecha":"2/16/2019","importe":71,"latitud":-9.3929796,"longitud":-76.7188613},
{"id":67,"fecha":"6/6/2019","importe":14,"latitud":38.8959734,"longitud":22.4349003},
{"id":68,"fecha":"9/20/2018","importe":44,"latitud":-41.468917,"longitud":-72.9411364},
{"id":69,"fecha":"5/9/2019","importe":2,"latitud":41.773672,"longitud":123.426773},
{"id":70,"fecha":"2/8/2019","importe":63,"latitud":-25.8664184,"longitud":28.1678543},
{"id":71,"fecha":"12/29/2018","importe":56,"latitud":14.5748896,"longitud":121.0455547},
{"id":72,"fecha":"8/2/2018","importe":7,"latitud":26.83411,"longitud":116.490286},
{"id":73,"fecha":"7/30/2018","importe":41,"latitud":58.4789614,"longitud":99.1018946},
{"id":74,"fecha":"4/1/2019","importe":85,"latitud":15.4217858,"longitud":51.678158},
{"id":75,"fecha":"4/10/2019","importe":27,"latitud":20.8965838,"longitud":-105.4093552},
{"id":76,"fecha":"7/11/2019","importe":52,"latitud":-23.6443472,"longitud":-47.5720968},
{"id":77,"fecha":"5/23/2019","importe":28,"latitud":40.2047139,"longitud":44.5128424},
{"id":78,"fecha":"1/24/2019","importe":72,"latitud":41.1661316,"longitud":-8.6784476},
{"id":79,"fecha":"10/31/2018","importe":32,"latitud":42.9438711,"longitud":72.7617572},
{"id":80,"fecha":"4/30/2019","importe":17,"latitud":-6.7149192,"longitud":111.1470115},
{"id":81,"fecha":"9/20/2018","importe":28,"latitud":46.4044239,"longitud":14.1375549},
{"id":82,"fecha":"6/7/2019","importe":15,"latitud":-14.2412572,"longitud":31.3198491},
{"id":83,"fecha":"12/14/2018","importe":54,"latitud":55.0099537,"longitud":39.0764494},
{"id":84,"fecha":"6/26/2019","importe":50,"latitud":16.1779407,"longitud":119.8572781},
{"id":85,"fecha":"1/3/2019","importe":28,"latitud":15.0312765,"longitud":-88.6458421},
{"id":86,"fecha":"11/30/2018","importe":46,"latitud":34.894093,"longitud":106.836465},
{"id":87,"fecha":"8/8/2018","importe":39,"latitud":29.985295,"longitud":122.207215},
{"id":88,"fecha":"8/18/2018","importe":73,"latitud":59.8271777,"longitud":10.7948784},
{"id":89,"fecha":"6/12/2019","importe":89,"latitud":14.7567271,"longitud":-90.9199977},
{"id":90,"fecha":"1/3/2019","importe":29,"latitud":-8.7872653,"longitud":116.2804288},
{"id":91,"fecha":"5/24/2019","importe":39,"latitud":-23.668163,"longitud":-46.4617086},
{"id":92,"fecha":"1/25/2019","importe":12,"latitud":8.1607397,"longitud":-75.1078332},
{"id":93,"fecha":"11/1/2018","importe":91,"latitud":49.5318094,"longitud":15.2242807},
{"id":94,"fecha":"3/16/2019","importe":92,"latitud":27.347756,"longitud":118.449526},
{"id":95,"fecha":"3/15/2019","importe":91,"latitud":38.5484731,"longitud":-122.8049523},
{"id":96,"fecha":"8/28/2018","importe":64,"latitud":-26.7376205,"longitud":-49.1743626},
{"id":97,"fecha":"3/1/2019","importe":74,"latitud":40.7753311,"longitud":-73.8726184},
{"id":98,"fecha":"4/3/2019","importe":47,"latitud":52.8234799,"longitud":21.3426286},
{"id":99,"fecha":"10/14/2018","importe":51,"latitud":30.7,"longitud":-88.11},
{"id":100,"fecha":"1/4/2019","importe":55,"latitud":40.570338,"longitud":116.554665}]
